{'trde': {'copy_other_columns': true,
          'tasks': {'langId': {'column_idx': 0, 'task_type': 'seq'}},
          'test_data_path': '../data/trde/langFeat/test',
          'train_data_path': '../data/trde/langFeat/train',
          'validation_data_path': '../data/trde/langFeat/test',
          'word_idx': 1}}
