Loading: ../../data/tr/w2v.bin
Loading: ../../data/tr/w2v.bin.cache
Loading: ./../../data/tr/aspell-model
Loading: ../../data/tr/twitter.ngr.bin
Loading: ../../data/tr/wiki.ngr.bin
Loading: ../../data/tr/aspell
Trained on 824 sentences
Loading input file: ../../working/old.trde.tr.data.
Growing trees ..
Growing trees.. Progress: 23%. Estimated remaining time: 1 minute, 43 seconds.
Growing trees.. Progress: 50%. Estimated remaining time: 1 minute, 3 seconds.
Growing trees.. Progress: 78%. Estimated remaining time: 25 seconds.
Computing prediction error ..
Saved forest to file ../../working/old.trde.tr.forest.

Tree type:                         Probability estimation
Dependent variable name:           gold
Dependent variable ID:             20
Number of trees:                   500
Sample size:                       838722
Number of independent variables:   20
Mtry:                              4
Target node size:                  10
Variable importance mode:          0
Memory mode:                       0
Seed:                              5
Number of threads:                 4

Overall OOB prediction error:      0.00111391

Saved prediction error to file ../../working/old.trde.tr.confusion.
